{
    "api_name" : "api-hospital",
    "examples" : {
        "wrong" : {
            "string" : "badstring",
            "number" : -6,
            "boolean" : false,
            "object" : "badobject",
            "array" : "badarray"
        },
        "successful" : {
            "string" : "goodstring",
            "number" : 6,
            "boolean" : true
        }
    },
    "environments":[
        {
            "name" : "DEV",
            "postman_collection_name": "API_TestSuite_DEV",
            "postman_environment_name": "API_TestSuiteEnv_DEV",
            "host": "https://api-gwy-us-e1.cloudappi.net",
            "port": ":443",
            "target_folder": "../tests"
        },
        {
            "name" : "QA",
            "postman_collection_name": "API_TestSuite_QA",
            "postman_environment_name": "API_TestSuiteEnv_QA",
            "host": "https://api-gwy-us-e1.cloudappi.net",
            "port": "443",
            "read_only": true,
            "target_folder": "../tests",
            "custom_authorizations_file": "authorizations.postman_collection.json"
        }
    ]
}
